{
  "Database_Settings": {
    "host": "localhost",
    "user": "root",
    "database": "test12"
  },
  "production": {
    "awsBucket": "internsclabs",
    "awsSecretKey": "r/jewsjNL+3zsdXKkyPZ/3oW1JCe69KQuubPE85h",
    "Url":"http://internsclabs.s3.amazonaws.com/apurva_files/",
    "awsAccessKey": "AKIAJA2GZXI6NQOIXMUA",
    "options": {
      "storageType": "STANDARD",
      "acl": "private",
      "checkMD5": true
    }
  },

  "emailSettings":
            {
                "email": "bansalapurva1993@gmail.com",
                "password": "softsoul^3663"
            },
  "PORT":3000
}